<?xml version="1.0" encoding="UTF-8" standalone="no"?>
<!-- Created with Inkscape (http://www.inkscape.org/) -->

<svg
   xmlns:dc="http://purl.org/dc/elements/1.1/"
   xmlns:cc="http://creativecommons.org/ns#"
   xmlns:rdf="http://www.w3.org/1999/02/22-rdf-syntax-ns#"
   xmlns:svg="http://www.w3.org/2000/svg"
   xmlns="http://www.w3.org/2000/svg"
   xmlns:sodipodi="http://sodipodi.sourceforge.net/DTD/sodipodi-0.dtd"
   xmlns:inkscape="http://www.inkscape.org/namespaces/inkscape"
   width="230.95"
   height="464.64999"
   id="svg2"
   version="1.1"
   inkscape:version="0.48.4 r9939"
   inkscape:export-filename="dfgd.png"
   inkscape:export-xdpi="13.558323"
   inkscape:export-ydpi="13.558323"
   sodipodi:docname="up-dsodwxn-leftd-right.svg">
  <defs
     id="defs4" />
  <sodipodi:namedview
     id="base"
     pagecolor="#ffffff"
     bordercolor="#666666"
     borderopacity="1.0"
     inkscape:pageopacity="0.0"
     inkscape:pageshadow="2"
     inkscape:zoom="0.84"
     inkscape:cx="-498.95835"
     inkscape:cy="278.0726"
     inkscape:document-units="px"
     inkscape:current-layer="layer1"
     showgrid="false"
     fit-margin-top="0"
     fit-margin-left="0"
     fit-margin-right="0"
     fit-margin-bottom="0"
     inkscape:window-width="1505"
     inkscape:window-height="893"
     inkscape:window-x="367"
     inkscape:window-y="62"
     inkscape:window-maximized="0"
     showborder="true"
     showguides="true"
     inkscape:guide-bbox="true"
     inkscape:showpageshadow="false">
    <sodipodi:guide
       orientation="1,0"
       position="-1169.9609,208.39519"
       id="guide2997" />
    <sodipodi:guide
       orientation="1,0"
       position="230.66805,175.91939"
       id="guide3763" />
  </sodipodi:namedview>
  <metadata
     id="metadata7">
    <rdf:RDF>
      <cc:Work
         rdf:about="">
        <dc:format>image/svg+xml</dc:format>
        <dc:type
           rdf:resource="http://purl.org/dc/dcmitype/StillImage" />
        <dc:title></dc:title>
      </cc:Work>
    </rdf:RDF>
  </metadata>
  <g
     inkscape:label="Layer 1"
     inkscape:groupmode="layer"
     id="layer1"
     transform="translate(-680.625,-571.09079)">
    <g
       id="g2997">
      <rect
         inkscape:export-ydpi="12.885906"
         inkscape:export-xdpi="12.885906"
         inkscape:export-filename="/home/diana/Дианино/25.png"
         ry="74.242424"
         y="647.24854"
         x="282.95456"
         height="300"
         width="300"
         id="rect3757"
         style="color:#000000;fill:#ffffff;fill-opacity:1;fill-rule:nonzero;stroke:#631878;stroke-width:7.30000019;stroke-linecap:round;stroke-linejoin:bevel;stroke-miterlimit:1;stroke-opacity:1;stroke-dasharray:none;marker:none;visibility:visible;display:inline;overflow:visible;enable-background:accumulate" />
      <path
         inkscape:export-ydpi="12.885906"
         inkscape:export-xdpi="12.885906"
         inkscape:export-filename="/home/diana/Дианино/25.png"
         sodipodi:nodetypes="ccccccc"
         inkscape:connector-curvature="0"
         id="rect3761-4-5"
         d="m 300.06326,854.20514 -0.42281,-34.4351 135.96701,-79.4781 130.6612,77.8694 -0.6259,36.0438 -130.0353,-76.2772 z"
         style="color:#000000;fill:#631878;fill-opacity:1;fill-rule:nonzero;stroke:none;stroke-width:5.59786463;marker:none;visibility:visible;display:inline;overflow:visible;enable-background:accumulate" />
    </g>
    <g
       id="g2993">
      <rect
         inkscape:export-ydpi="12.885906"
         inkscape:export-xdpi="12.885906"
         inkscape:export-filename="/home/diana/Дианино/dokhklwn.png"
         transform="scale(-1,-1)"
         ry="74.242424"
         y="-943.75616"
         x="-51.180679"
         height="300"
         width="300"
         id="rect3757-7"
         style="color:#000000;fill:#ffffff;fill-opacity:1;fill-rule:nonzero;stroke:#631878;stroke-width:7.30000019;stroke-linecap:round;stroke-linejoin:bevel;stroke-miterlimit:1;stroke-opacity:1;stroke-dasharray:none;marker:none;visibility:visible;display:inline;overflow:visible;enable-background:accumulate" />
      <path
         inkscape:export-ydpi="12.885906"
         inkscape:export-xdpi="12.885906"
         inkscape:export-filename="/home/diana/Дианино/dokhklwn.png"
         sodipodi:nodetypes="ccccccc"
         inkscape:connector-curvature="0"
         id="rect3761-4-5-2"
         d="m 34.071996,736.79961 0.42281,34.4351 -135.967006,79.4781 -130.66121,-77.8694 0.6259,-36.0438 130.03531,76.2772 z"
         style="color:#000000;fill:#631878;fill-opacity:1;fill-rule:nonzero;stroke:none;stroke-width:5.59786463;marker:none;visibility:visible;display:inline;overflow:visible;enable-background:accumulate" />
    </g>
    <g
       id="g3001">
      <path
         sodipodi:nodetypes="cssssssc"
         inkscape:connector-curvature="0"
         id="rect3757-8"
         d="m 911.29306,1031.8257 c -0.63812,-47.08603 -36.1416,-80.19687 -77.27152,-80.01967 l -75.49024,0.3252 c -41.12993,0.1772 -74.24243,-33.1121 -74.24243,-74.2424 l 0,-151.5152 c 0,-41.1303 33.11642,-73.648 74.24243,-74.2424 l 75.49024,-1.0911 c 41.126,-0.5945 78.99936,-32.715 77.27152,-76.2488"
         style="color:#000000;fill:#ffffff;fill-opacity:1;fill-rule:nonzero;stroke:#631878;stroke-width:7.30000019;stroke-linecap:round;stroke-linejoin:bevel;stroke-miterlimit:1;stroke-opacity:1;marker:none;visibility:visible;display:inline;overflow:visible;enable-background:accumulate" />
      <path
         inkscape:export-ydpi="12.885906"
         inkscape:export-xdpi="12.885906"
         inkscape:export-filename="/home/diana/Дианино/up.png"
         sodipodi:nodetypes="ccccccc"
         inkscape:connector-curvature="0"
         id="rect3761-4-5-5"
         d="m 832.49895,934.15863 -34.4351,0.4228 -79.4781,-135.967 77.8694,-130.6612 36.0438,0.6259 -76.2772,130.0353 z"
         style="color:#000000;fill:#631878;fill-opacity:1;fill-rule:nonzero;stroke:none;stroke-width:5.59786463;marker:none;visibility:visible;display:inline;overflow:visible;enable-background:accumulate" />
    </g>
    <path
       style="color:#000000;fill:#ffffff;fill-opacity:1;fill-rule:nonzero;stroke:#631878;stroke-width:7.30000019;stroke-linecap:round;stroke-linejoin:bevel;stroke-miterlimit:1;stroke-opacity:1;marker:none;visibility:visible;display:inline;overflow:visible;enable-background:accumulate"
       d="m -489.3359,1033.7945 c -0.6381,-47.08615 -35.04318,-77.92655 -76.17308,-77.74935 l -75.4902,0.3252 c -41.12996,0.1772 -74.24246,-33.1121 -74.24246,-74.2424 l 0,-151.5152 c 0,-41.1303 33.1164,-73.648 74.24246,-74.2424 l 75.4902,-1.0911 c 41.126,-0.5945 77.90098,-34.196 76.17308,-77.7298"
       id="rect3757-8-0"
       inkscape:connector-curvature="0"
       sodipodi:nodetypes="cssssssc" />
    <path
       style="color:#000000;fill:#631878;fill-opacity:1;fill-rule:nonzero;stroke:none;stroke-width:5.59786463;marker:none;visibility:visible;display:inline;overflow:visible;enable-background:accumulate"
       d="m -650.17558,674.26165 34.4351,-0.4228 79.4781,135.967 -77.8694,130.6612 -36.0438,-0.6259 76.2772,-130.0353 z"
       id="rect3761-4-5-5-9"
       inkscape:connector-curvature="0"
       sodipodi:nodetypes="ccccccc"
       inkscape:export-filename="/home/diana/Дианино/up.png"
       inkscape:export-xdpi="12.885906"
       inkscape:export-ydpi="12.885906" />
  </g>
</svg>
